Studying the behaviour of Kendall random walks
…
Jumps

diffs <- mutate_kendall_rw(walks, function(x) x - lag(x))
diffs
#> # A tibble: 1,000,000 x 2
#> # Groups:   sim_id [1,000]
#>    sim_id     sim
#>     <int>   <dbl>
#>  1      1  NA    
#>  2      1  -1.02 
#>  3      1   0.   
#>  4      1  -0.478
#>  5      1   3.88 
#>  6      1  -5.04 
#>  7      1  26.0  
#>  8      1   0.   
#>  9      1   0.   
#> 10      1   0.   
#> # ... with 999,990 more rows
…
